{
    "achievement": [
        "CgkI--aVpboEEAIQAQ",
        "CgkI--aVpboEEAIQAg",
        "CgkI--aVpboEEAIQAw",
        "CgkI--aVpboEEAIQBA",
        "CgkI--aVpboEEAIQBQ",
        "CgkI--aVpboEEAIQBg",
        "CgkI--aVpboEEAIQBw",
        "CgkI--aVpboEEAIQCA",
        "CgkI--aVpboEEAIQCQ",
        "CgkI--aVpboEEAIQCg"
    ],

    "leaderboardId": "CgkI--aVpboEEAIQCw",

    "ball": [
        {
            "sprite": "ball_paper",
            "kickMod": 500,
            "score": 0,
            "sfx": "sfx_hit_paperball"
        },

        {
            "sprite": "ball_can",
            "kickMod": 450,
            "score": 10,
            "sfx": "sfx_hit_lightball"
        },

        {
            "sprite": "ball_milk",
            "kickMod": 400,
            "score": 20,
            "sfx": "sfx_hit_lightball"
        },

        {
            "sprite": "ball_leather",
            "kickMod": 200,
            "score": 30,
            "sfx": "sfx_hit_mediumball"
        },

        {
            "sprite": "ball_default",
            "kickMod": 0,
            "score": 50,
            "sfx": "sfx_hit_mediumball"
        },

        {
            "sprite": "ball_bronze",
            "kickMod": -100,
            "score": 80,
            "sfx": "sfx_hit_heavyball"
        },

        {
            "sprite": "ball_silver",
            "kickMod": -150,
            "score": 130,
            "sfx": "sfx_hit_heavyball"
        },

        {
            "sprite": "ball_gold",
            "kickMod": -200,
            "score": 210,
            "sfx": "sfx_hit_heavyball"
        },

        {
            "sprite": "ball_platinum",
            "kickMod": -250,
            "score": 340,
            "sfx": "sfx_hit_heavyball"
        },

        {
            "sprite": "ball_diamond",
            "kickMod": -300,
            "score": 550,
            "sfx": "sfx_hit_heavyball"
        }
    ]
}